// Jest Snapshot v1, https://goo.gl/fbAQLP

exports[`Test input component 1`] = `
<div
  className="sc-AxirZ keqnKH"
>
  <div
    className="sc-AxiKw kxAxEI"
    onClick={[Function]}
  >
    <div>
      See item details
    </div>
    <svg
      aria-hidden="true"
      className="sc-AxjAm gXIMwt"
      fill="currentColor"
      focusable="false"
      height="24"
      viewBox="0 0 24 24"
      width="24"
      xmlns="http://www.w3.org/2000/svg"
    >
      <g
        data-name="Layer 2"
      >
        <path
          d="M12 16a1 1 0 01-.64-.23l-6-5a1 1 0 111.28-1.54L12 13.71l5.36-4.32a1 1 0 011.41.15 1 1 0 01-.14 1.46l-6 4.83A1 1 0 0112 16z"
          data-name="arrow-ios-downward"
        />
      </g>
    </svg>
  </div>
  <hr />
</div>
`;

exports[`Test input component 2`] = `
<div
  className="sc-AxirZ keqnKH"
>
  <div
    className="sc-AxiKw kxAxEI"
    onClick={[Function]}
  >
    <div>
      See item details
    </div>
    <svg
      aria-hidden="true"
      className="sc-AxjAm gXIMwt"
      fill="currentColor"
      focusable="false"
      height="24"
      viewBox="0 0 24 24"
      width="24"
      xmlns="http://www.w3.org/2000/svg"
    >
      <g
        data-name="Layer 2"
      >
        <path
          d="M12 16a1 1 0 01-.64-.23l-6-5a1 1 0 111.28-1.54L12 13.71l5.36-4.32a1 1 0 011.41.15 1 1 0 01-.14 1.46l-6 4.83A1 1 0 0112 16z"
          data-name="arrow-ios-downward"
        />
      </g>
    </svg>
  </div>
  <hr />
</div>
`;
